{
  "companyName": {
    "type": "String",
    "description": "Enter companyName",
    "modelValue": ""
  },
  "country": {
    "type": "String",
    "description": "Enter country",
    "modelValue": ""
  },
  "Address": {
    "type": "String",
    "description": "Enter streetAddress",
    "modelValue": ""
  },
  "city": {
    "type": "String",
    "description": "Enter city",
    "modelValue": ""
  },
  "pinCode": {
    "type": "Number",
    "description": "Enter pinCode",
    "modelValue": ""
  },
  "taxationType": {
    "type": "String",
    "description": "Enter taxationType",
    "modelValue": ""
  },
  "contactName": {
    "type": "String",
    "description": "Enter contactName",
    "modelValue": ""
  },
  "deafultCurrency": {
    "type": "String",
    "description": "Enter deafultCurrency",
    "modelValue": ""
  },
  "state": {
    "type": "String",
    "description": "Enter state",
    "modelValue": ""
  },
  "ZipCode": {
    "type": "String",
    "description": "Enter ZipCode",
    "modelValue": ""
  },
  "Phone": {
    "type": "String",
    "description": "Enter Phone",
    "modelValue": ""
  },
  "Fax": {
    "type": "String",
    "description": "Enter Fax",
    "modelValue": ""
  },
  "webSite": {
    "type": "String",
    "description": "Enter webSite",
    "modelValue": ""
  },
  "Logo": {
    "type": "String",
    "description": "Enter Logo",
    "modelValue": ""
  },
  "email": {
    "type": "String",
    "description": "Enter email",
    "modelValue": ""
  },
  "serviceTaxNo": {
    "type": "Number",
    "description": "Enter serviceTaxNo",
    "modelValue": ""
  },
  "tin": {
    "type": "Number",
    "description": "Enter tin",
    "modelValue": ""
  },
  "vat": {
    "type": "Number",
    "description": "Enter vat",
    "modelValue": ""
  },
  "cst": {
    "type": "Number",
    "description": "Enter cst",
    "modelValue": ""
  },
  "pan": {
    "type": "Number",
    "description": "Enter pan",
    "modelValue": ""
  },
  "lst": {
    "type": "Number",
    "description": "Enter lst",
    "modelValue": ""
  }
}



